{
  "defaultSeverity": "error",
  "extends": ["tslint:recommended"],
  "jsRules": {},
  "rules": {
    "arrow-parens": false,
    "interface-name": [false],
    "jsx-alignment": false,
    "jsx-boolean-value": false,
    "jsx-no-lambda": false,
    "jsx-no-multiline-js": false,
    "max-classes-per-file": false,
    "member-access": false,
    "no-empty-interface": false,
    "no-duplicate-imports": true,
    "object-literal-sort-keys": false,
    "object-literal-key-quotes": false,
    "no-any": true,
    "semicolon": false,
    "trailing-comma": [true, { "multiline": "always", "esSpecCompliant": true }],
    "variable-name": [true, "ban-keywords", "check-format", "allow-pascal-case", "allow-leading-underscore"],
    "jsdoc-format": [true, "check-multiline-start"]
  },
  "rulesDirectory": []
}
